…
See <https://www.reisanar.com/slides/relationships-models#10> for a reminder on how to use this type of dataset with the `lubridate` package for dates and times (example included in the slides uses data from 2016).


```r
weather_tpa
```

```
## # A tibble: 365 × 7
##     year month   day precipitation max_temp min_temp ave_temp
##    <dbl> <dbl> <dbl>         <dbl>    <dbl>    <dbl>    <dbl>
##  1  2022     1     1       0             82       67     74.5
##  2  2022     1     2       0             82       71     76.5
##  3  2022     1     3       0.02          75       55     65  
##  4  2022     1     4       0             76       50     63  
##  5  2022     1     5       0             75       59     67  
##  6  2022     1     6       0.00001       74       56     65  
##  7  2022     1     7       0.00001       81       63     72  
##  8  2022     1     8       0             81       58     69.5
##  9  2022     1     9       0             84       65     74.5
## 10  2022     1    10       0             81       64     72.5
## # ℹ 355 more rows
```
…
```r
weather_tpa_clean <- weather_tpa %>%
 mutate(doy = ymd(paste(year, month, day, sep = "-")))
weather_tpa_clean
```

```
## # A tibble: 365 × 8
##     year month   day precipitation max_temp min_temp ave_temp doy       
##    <dbl> <dbl> <dbl>         <dbl>    <dbl>    <dbl>    <dbl> <date>    
##  1  2022     1     1       0             82       67     74.5 2022-01-01
##  2  2022     1     2       0             82       71     76.5 2022-01-02
##  3  2022     1     3       0.02          75       55     65   2022-01-03
##  4  2022     1     4       0             76       50     63   2022-01-04
##  5  2022     1     5       0             75       59     67   2022-01-05
##  6  2022     1     6       0.00001       74       56     65   2022-01-06
##  7  2022     1     7       0.00001       81       63     72   2022-01-07
##  8  2022     1     8       0             81       58     69.5 2022-01-08
##  9  2022     1     9       0             84       65     74.5 2022-01-09
## 10  2022     1    10       0             81       64     72.5 2022-01-10
## # ℹ 355 more rows
```
…
(e) Create a plot of your choice that uses the attribute for precipitation *(values of -99.9 for temperature or -99.99 for precipitation represent missing data)*.


```r
weather_tpa_clean
```

```
## # A tibble: 365 × 8
##     year month   day precipitation max_temp min_temp ave_temp doy       
##    <dbl> <dbl> <dbl>         <dbl>    <dbl>    <dbl>    <dbl> <date>    
##  1  2022     1     1       0             82       67     74.5 2022-01-01
##  2  2022     1     2       0             82       71     76.5 2022-01-02
##  3  2022     1     3       0.02          75       55     65   2022-01-03
##  4  2022     1     4       0             76       50     63   2022-01-04
##  5  2022     1     5       0             75       59     67   2022-01-05
##  6  2022     1     6       0.00001       74       56     65   2022-01-06
##  7  2022     1     7       0.00001       81       63     72   2022-01-07
##  8  2022     1     8       0             81       58     69.5 2022-01-08
##  9  2022     1     9       0             84       65     74.5 2022-01-09
## 10  2022     1    10       0             81       64     72.5 2022-01-10
## # ℹ 355 more rows
```
…
